{
  "id": "config",
  "instances": 1,
  "labels": {
    "HAPROXY_GROUP": "external",
    "HAPROXY_0_PORT": "8989",
    "HAPROXY_0_HTTP_BACKEND_PROXYPASS_PATH": "/config"
  },
  "cpus": 0.25,
  "mem": 1024,
  "container": {
    "type": "DOCKER",
    "docker": {
      "image": "config:0.0.1",
      "network": "BRIDGE",
      "portMappings": [
        { "containerPort": 8080, "hostPort": 0, "protocol": "tcp" }
      ]
    }
  },
  "healthChecks": [
    {
      "protocol": "HTTP",
      "portIndex": 0,
      "path": "/actuator/health",
      "gracePeriodSeconds": 5,
      "intervalSeconds": 20,
      "maxConsecutiveFailures": 3
    }
  ]
}
